<?xml version="1.0" encoding="UTF-8" standalone="no" ?>
<COLLADA xmlns="http://www.collada.org/2005/11/COLLADASchema" version="1.4.1">
    <asset>
        <contributor>
            <authoring_tool>SketchUp 16.0.19912</authoring_tool>
        </contributor>
        <created>2023-07-14T12:19:45Z</created>
        <modified>2023-07-14T12:19:45Z</modified>
        <unit meter="0.0254" name="inch" />
        <up_axis>Z_UP</up_axis>
    </asset>
    <library_visual_scenes>
        <visual_scene id="ID1">
            <node name="SketchUp">
                <node id="skp_camera" name="Last Saved SketchUp View">
                    <lookat>172.3258 -212.1036 171.5888 -184.2373 554.6848 -295.6162 -0.2039061 0.4384997 0.8752944</lookat>
                </node>
                <node id="ID2" name="instance_0">
                    <matrix>1 0 0 0 0 1 0 0 0 0 1 0 0 0 0 1</matrix>
                    <instance_node url="#ID3" />
                </node>
            </node>
        </visual_scene>
    </library_visual_scenes>
    <library_nodes>
        <node id="ID3" name="Component_2">
            <node id="ID4" name="instance_1">
                <matrix>1 0 0 0 0 1 0 0 0 0 1 0 0 0 0 1</matrix>
                <instance_node url="#ID5" />
            </node>
            <node id="ID14" name="instance_2">
                <matrix>1 0 0 59.05512 0 1 0 0 0 0 1 0 0 0 0 1</matrix>
                <instance_node url="#ID5" />
            </node>
        </node>
        <node id="ID5" name="Component_1">
            <instance_geometry url="#ID6">
                <bind_material>
                    <technique_common>
                        <instance_material symbol="Material2" target="#ID8">
                            <bind_vertex_input semantic="UVSET0" input_semantic="TEXCOORD" input_set="0" />
                        </instance_material>
                    </technique_common>
                </bind_material>
            </instance_geometry>
        </node>
    </library_nodes>
    <library_geometries>
        <geometry id="ID6">
            <mesh>
                <source id="ID9">
                    <float_array id="ID12" count="72">39.37008 0 39.37008 0 0 39.37008 0 0 0 39.37008 0 0 0 0 39.37008 39.37008 0 39.37008 39.37008 39.37008 39.37008 0 39.37008 39.37008 0 39.37008 39.37008 0 39.37008 0 0 0 0 0 0 39.37008 39.37008 0 0 0 0 0 0 39.37008 0 39.37008 39.37008 0 39.37008 39.37008 39.37008 39.37008 0 39.37008 39.37008 0 0 39.37008 39.37008 0 0 39.37008 0 0 39.37008 39.37008 39.37008 39.37008 39.37008 39.37008 39.37008 0</float_array>
                    <technique_common>
                        <accessor count="24" source="#ID12" stride="3">
                            <param name="X" type="float" />
                            <param name="Y" type="float" />
                            <param name="Z" type="float" />
                        </accessor>
                    </technique_common>
                </source>
                <source id="ID10">
                    <float_array id="ID13" count="72">0 -1 0 0 -1 0 0 -1 0 0 -1 0 0 0 1 0 0 1 0 0 1 0 0 1 -1 0 0 -1 0 0 -1 0 0 -1 0 0 0 0 -1 0 0 -1 0 0 -1 0 0 -1 1 0 0 1 0 0 1 0 0 1 0 0 0 1 0 0 1 0 0 1 0 0 1 0</float_array>
                    <technique_common>
                        <accessor count="24" source="#ID13" stride="3">
                            <param name="X" type="float" />
                            <param name="Y" type="float" />
                            <param name="Z" type="float" />
                        </accessor>
                    </technique_common>
                </source>
                <vertices id="ID11">
                    <input semantic="POSITION" source="#ID9" />
                    <input semantic="NORMAL" source="#ID10" />
                </vertices>
                <polylist count="6" material="Material2">
                    <input offset="0" semantic="VERTEX" source="#ID11" />
                    <vcount>4 4 4 4 4 4</vcount>
                    <p>0 1 2 3 4 5 6 7 8 9 10 11 12 13 14 15 16 17 18 19 20 21 22 23</p>
                </polylist>
            </mesh>
        </geometry>
    </library_geometries>
    <library_materials>
        <material id="ID8" name="material">
            <instance_effect url="#ID7" />
        </material>
    </library_materials>
    <library_effects>
        <effect id="ID7">
            <profile_COMMON>
                <technique sid="COMMON">
                    <lambert>
                        <diffuse>
                            <color>1 1 1 1</color>
                        </diffuse>
                    </lambert>
                </technique>
            </profile_COMMON>
        </effect>
    </library_effects>
    <scene>
        <instance_visual_scene url="#ID1" />
    </scene>
</COLLADA>
